Ergonomic Methods for Assessing Spatial Models • waywiser
…
More information about multi-scale assessment is included in vignette("multi-scale-assessment", package = "waywiser").

We could also assess the spatial dependence of our model residuals, to identify any potential “hot spots” where our model is consistently less accurate than we’d expect by chance:

guerry_predicted <- guerry
guerry_predicted$predictions <- predict(crime_model, guerry)

ww_local_moran_i(guerry_predicted, Crm_prs, predictions)
#> # A tibble: 85 × 3
#>    .metric       .estimator .estimate
#>    <chr>         <chr>          <dbl>
#>  1 local_moran_i standard      0.548 
#>  2 local_moran_i standard      0.943 
#>  3 local_moran_i standard      0.636 
#>  4 local_moran_i standard      0.700 
#>  5 local_moran_i standard      0.137 
#>  6 local_moran_i standard      0.917 
#>  7 local_moran_i standard      0.900 
#>  8 local_moran_i standard      1.79  
#>  9 local_moran_i standard      0.0208
#> 10 local_moran_i standard      0.750 
#> # ℹ 75 more rows
…
