Local Getis-Ord G and G* statistic — ww_local_getis_ord_g • waywiser
…
    Examples

guerry_model <- guerry
guerry_lm <- lm(Crm_prs ~ Litercy, guerry_model)
guerry_model$predictions <- predict(guerry_lm, guerry_model)

ww_local_getis_ord_g(guerry_model, Crm_prs, predictions)
#> # A tibble: 85 × 3
#>    .metric           .estimator .estimate
#>    <chr>             <chr>          <dbl>
#>  1 local_getis_ord_g standard       0.913
#>  2 local_getis_ord_g standard       2.49 
#>  3 local_getis_ord_g standard       2.15 
#>  4 local_getis_ord_g standard      -1.58 
#>  5 local_getis_ord_g standard      -1.19 
#>  6 local_getis_ord_g standard      -1.68 
#>  7 local_getis_ord_g standard       0.627
#>  8 local_getis_ord_g standard      -1.60 
#>  9 local_getis_ord_g standard       0.964
#> 10 local_getis_ord_g standard      -2.71 
#> # ℹ 75 more rows
ww_local_getis_ord_g_pvalue(guerry_model, Crm_prs, predictions)
#> # A tibble: 85 × 3
#>    .metric                  .estimator .estimate
#>    <chr>                    <chr>          <dbl>
#>  1 local_getis_ord_g_pvalue standard     0.346  
#>  2 local_getis_ord_g_pvalue standard     0.0202 
#>  3 local_getis_ord_g_pvalue standard     0.0298 
#>  4 local_getis_ord_g_pvalue standard     0.124  
#>  5 local_getis_ord_g_pvalue standard     0.225  
#>  6 local_getis_ord_g_pvalue standard     0.108  
#>  7 local_getis_ord_g_pvalue standard     0.499  
#>  8 local_getis_ord_g_pvalue standard     0.110  
#>  9 local_getis_ord_g_pvalue standard     0.347  
#> 10 local_getis_ord_g_pvalue standard     0.00679
#> # ℹ 75 more rows
…
