Local Geary's C statistic — ww_local_geary_c • waywiser
…
    Examples

guerry_model <- guerry
guerry_lm <- lm(Crm_prs ~ Litercy, guerry_model)
guerry_model$predictions <- predict(guerry_lm, guerry_model)

ww_local_geary_c(guerry_model, Crm_prs, predictions)
#> # A tibble: 85 × 3
#>    .metric       .estimator .estimate
#>    <chr>         <chr>          <dbl>
#>  1 local_geary_c standard       0.981
#>  2 local_geary_c standard       0.836
#>  3 local_geary_c standard       0.707
#>  4 local_geary_c standard       0.108
#>  5 local_geary_c standard       0.264
#>  6 local_geary_c standard       1.36 
#>  7 local_geary_c standard       3.64 
#>  8 local_geary_c standard       1.57 
#>  9 local_geary_c standard       0.867
#> 10 local_geary_c standard       0.737
#> # ℹ 75 more rows
ww_local_geary_pvalue(guerry_model, Crm_prs, predictions)
#> # A tibble: 85 × 3
#>    .metric            .estimator .estimate
#>    <chr>              <chr>          <dbl>
#>  1 local_geary_pvalue standard       0.202
#>  2 local_geary_pvalue standard       0.217
#>  3 local_geary_pvalue standard       0.154
#>  4 local_geary_pvalue standard       0.106
#>  5 local_geary_pvalue standard       0.325
#>  6 local_geary_pvalue standard       0.144
#>  7 local_geary_pvalue standard       0.420
#>  8 local_geary_pvalue standard       0.209
#>  9 local_geary_pvalue standard       0.806
#> 10 local_geary_pvalue standard       0.484
#> # ℹ 75 more rows
…
