Predict from a ww_area_of_applicability — predict.ww_area_of_applicability • waywiser
…
importance <- vip::vi_permute(
  pp,
  target = "y",
  metric = metric_name,
  pred_wrapper = predict,
  train = train
)

aoa <- ww_area_of_applicability(y ~ ., train, test, importance = importance)
predict(aoa, test)
#> # A tibble: 300 × 2
#>        di aoa  
#>     <dbl> <lgl>
#>  1 0.175  TRUE 
#>  2 0.191  TRUE 
#>  3 0.190  TRUE 
#>  4 0.0802 TRUE 
#>  5 0.141  TRUE 
#>  6 0.287  TRUE 
#>  7 0.178  TRUE 
#>  8 0.205  TRUE 
#>  9 0.134  TRUE 
#> 10 0.177  TRUE 
#> # ℹ 290 more rows
…
