Calculating residual spatial autocorrelation • waywiser
…
For that reason, it’s often worthwhile to look at the spatial autocorrelation of model residuals, to see if your model makes more errors in certain regions than you’d expect if errors were randomly arranged. That can help you to identify misspecifications in your model: seeing large autocorrelations in model residuals in an area might suggest that you’re missing variables in your model, and knowing which areas your model does worse in can help you to identify what those variables might be. Even if you can’t fix your model, it’s often useful to identify regions your model does notably worse in, so that you can communicate that to whoever winds up using your predictions.

Let’s walk through how we can use waywiser to find local indicators of spatial autocorrelation for a very simple model. First things first, let’s load a few libraries:

# waywiser itself, of course:
library(waywiser)
# For the %>% pipe and mutate:
library(dplyr)

We’ll be working with the guerry data included in waywiser package. We’ll fit a simple linear model relating crimes against persons with literacy, and then generate predictions from that model. We can use ww_local_moran_i() to calculate the local spatial autocorrelation of our residuals at each data point:

guerry %>%
  mutate(pred = predict(lm(Crm_prs ~ Litercy, .))) %>%
  ww_local_moran_i(Crm_prs, pred)
#> # A tibble: 85 × 3
#>    .metric       .estimator .estimate
#>    <chr>         <chr>          <dbl>
#>  1 local_moran_i standard      0.530 
#>  2 local_moran_i standard      0.858 
#>  3 local_moran_i standard      0.759 
#>  4 local_moran_i standard      0.732 
#>  5 local_moran_i standard      0.207 
#>  6 local_moran_i standard      0.860 
#>  7 local_moran_i standard      0.692 
#>  8 local_moran_i standard      1.69  
#>  9 local_moran_i standard     -0.0109
#> 10 local_moran_i standard      0.710 
#> # ℹ 75 more rows
…
guerry %>%
  mutate(pred = predict(lm(Crm_prs ~ Litercy, .))) %>%
  ww_local_moran_i(Crm_prs, pred, weights)
#> # A tibble: 85 × 3
#>    .metric       .estimator .estimate
#>    <chr>         <chr>          <dbl>
#>  1 local_moran_i standard    0.530   
#>  2 local_moran_i standard    0.794   
#>  3 local_moran_i standard    0.646   
#>  4 local_moran_i standard    0.687   
#>  5 local_moran_i standard    0.207   
#>  6 local_moran_i standard    1.49    
#>  7 local_moran_i standard    0.692   
#>  8 local_moran_i standard    1.69    
#>  9 local_moran_i standard   -0.000610
#> 10 local_moran_i standard    0.859   
#> # ℹ 75 more rows

Or as a function, which lets you use custom weights with other tidymodels functions like fit_resamples():

weights_function <- function(data) {
  data %>%
    sf::st_geometry() %>%
    sf::st_centroid() %>%
    spdep::dnearneigh(0, 97000) %>%
    spdep::nb2listw()
}

guerry %>%
  mutate(pred = predict(lm(Crm_prs ~ Litercy, .))) %>%
  ww_local_moran_i(Crm_prs, pred, weights_function)
#> # A tibble: 85 × 3
#>    .metric       .estimator .estimate
#>    <chr>         <chr>          <dbl>
#>  1 local_moran_i standard    0.530   
#>  2 local_moran_i standard    0.794   
#>  3 local_moran_i standard    0.646   
#>  4 local_moran_i standard    0.687   
#>  5 local_moran_i standard    0.207   
#>  6 local_moran_i standard    1.49    
#>  7 local_moran_i standard    0.692   
#>  8 local_moran_i standard    1.69    
#>  9 local_moran_i standard   -0.000610
#> 10 local_moran_i standard    0.859   
#> # ℹ 75 more rows
…
